3112 6863 262
14432 1413 276
12134 12341 250
543535 134 470
123 123 47
4235 1216 238
24468 423578 449
12314 124134 354
19999 20423 243
1 984746 525
341341 124 443
251 1411 182
13435 11 276
145 452 144
1514 452222 449
25 25 24
1222 1555 177
133 15213 276
4645 2345 238
879799 65 525
334 7905 262
6336 284658 443
9264 154 262
25583 14846 282
423 90564 351
8463 5835 262
448 28543 308
23452 485 279
43634 23 324
1 20 21
14 46 112
25 999999 525
4567 555 238
24567 396343 443
2654 27364 308
9274 253536 443
453 2 144
2352 89 183
89 89 31
2342 453 183
3453 888 217
923883 275537 525
66 777 171
9082 23545 282
232 235235 443
2352 252 183
2545 74634 340
2 485 144
783 9 171
1 9823 262
872424 1231 525
7374 28843 308
564 3634 217
999 999 50
19747 364 279
1 38364 324
7766 3847 262
273 64729 340
7364 82423 351
72342 21 340
6767 6767 151
324 2356 183
333 333 113
7283 343 262
2525 5656 238
2342 254 183
245667 89895 443
345 35534 311
4211 5678 236
1234 5678 238
90123 34567 351
56 345367 443
42 1 112
56 5757 238
3435 43 217
57788 57788 159
5234 12 238
34656 463 311
235454 34534 443
34567 77776 351
46456 6464 324
111 777777 509
35 32 27
764 342 171
6346 63 262
4366 676 238
578 345 142
463453 3433 449
3453 367866 443
5463 34545 311
3485 34534 311
32 454545 449
360 4350 238
864940 4544 525
5235 454 238
32423 252 308
2352 23234 279
3224 234 217
1999 641723 509
414 14343 276
234 2355 183
64 34 113
352 3578 217
345 46655 324
7654 232 262
234234 3 443
23225 9 279
224 2342 183
789 7890 262
7890 789055 509
254 2352 183
25234 234234 443
274 676 145
4456 2277 238
575 575 44
